EWGT-2021: Potential of vision-enhanced floating car data for urban traffic estimation
…
Experimental results

est.df<-bind_rows(est)
est.df

## # A tibble: 218 x 9
##    observedMAE unobservedMAE observedMAPE unobservedMAPE converged sparsity
##          <dbl>         <dbl>        <dbl>          <dbl> <lgl>        <dbl>
##  1      0.0778         39.3      0.00122          0.613  TRUE         0.001
##  2      0.0655         33.9      0.00110          0.532  TRUE         0.001
##  3      0.0779         31.7      0.00131          0.498  TRUE         0.001
##  4      0.0543         33.5      0.000852         0.527  TRUE         0.002
##  5      0.0544         15.9      0.000917         0.262  TRUE         0.002
##  6      0.0619         11.9      0.00101          0.199  TRUE         0.002
##  7      0.0497         28.9      0.000852         0.453  TRUE         0.003
##  8      0.0554          4.21     0.000909         0.0834 TRUE         0.003
##  9      0.0530          7.93     0.000876         0.133  TRUE         0.003
## 10      0.0478         18.9      0.000843         0.302  TRUE         0.004
## # ... with 208 more rows, and 3 more variables: obslinks <int>, coverage <dbl>,
## #   name <chr>
…
